…
Make sure it’s clear what research question you are doing each operation
for!

<!------------------------- Start your work below ----------------------------->

#### 1. Is there any relationship between diagnosis and mean symmetry? **(Option 3, 7, 8)**

``` r
cancer_symmetry <- cancer_sample %>%
  mutate(symmetry_mean_level = cut_interval(symmetry_mean, 4, labels = c('low', 'med', 'high', 'very high'))) %>%
  select(diagnosis, symmetry_mean, symmetry_mean_level)
cancer_symmetry
```

    ## # A tibble: 569 × 3
    ##    diagnosis symmetry_mean symmetry_mean_level
    ##    <chr>             <dbl> <fct>              
    ##  1 M                 0.242 high               
    ##  2 M                 0.181 med                
    ##  3 M                 0.207 high               
    ##  4 M                 0.260 very high          
    ##  5 M                 0.181 med                
    ##  6 M                 0.209 high               
    ##  7 M                 0.179 med                
    ##  8 M                 0.220 high               
    ##  9 M                 0.235 high               
    ## 10 M                 0.203 med                
    ## # ℹ 559 more rows
…
``` r
cancer_worst_radius_concavity <- cancer_sample %>%
  mutate(radius_worst_level = cut_interval(radius_worst, 4, labels = c('low', 'med', 'high', 'very high')), concavity_worst_level = cut_interval(concavity_worst, 4, labels = c('low', 'med', 'high', 'very high'))) %>% # cut the worst radius and concavity into four intervals
  mutate(worst_level = paste0(as.character(radius_worst_level)," ", as.character(concavity_worst_level)), worst_value = scale(radius_worst)+scale(concavity_worst)) %>%
  select(diagnosis, worst_level, worst_value)
cancer_worst_radius_concavity
```

    ## # A tibble: 569 × 3
    ##    diagnosis worst_level   worst_value[,1]
    ##    <chr>     <chr>                   <dbl>
    ##  1 M         high high               3.99 
    ##  2 M         high low                1.66 
    ##  3 M         high med                2.36 
    ##  4 M         low high                1.71 
    ##  5 M         high med                1.91 
    ##  6 M         med med                 1.10 
    ##  7 M         high med                1.88 
    ##  8 M         med low                 0.143
    ##  9 M         med med                 1.12 
    ## 10 M         med very high           3.75 
    ## # ℹ 559 more rows

Then we can have a look at the proportion and counts of each worst level
**(Option 4)**:

``` r
cancer_worst_radius_concavity %>%
  group_by(diagnosis, worst_level) %>%
  summarise(counts = n()) %>% # calculate the counts of each worst concavity level
  mutate(proportion = counts / sum(counts)) # calculate the proportion of each worst concavity level
```

    ## `summarise()` has grouped output by 'diagnosis'. You can override using the
    ## `.groups` argument.

    ## # A tibble: 21 × 4
    ## # Groups:   diagnosis [2]
    ##    diagnosis worst_level   counts proportion
    ##    <chr>     <chr>          <int>      <dbl>
    ##  1 B         low high           3    0.00840
    ##  2 B         low low          250    0.700  
    ##  3 B         low med           23    0.0644 
    ##  4 B         low very high      1    0.00280
    ##  5 B         med high           2    0.00560
    ##  6 B         med low           68    0.190  
    ##  7 B         med med           10    0.0280 
    ##  8 M         high high         13    0.0613 
    ##  9 M         high low           7    0.0330 
    ## 10 M         high med          54    0.255  
    ## # ℹ 11 more rows
…
